…
<script src="{{< blogdown/postref >}}index_files/header-attrs/header-attrs.js">

Import Libraries

Data: Class Sizes

ClassSize <- read_csv("Class Size District Level Summary.csv", na = c("n/a", "", "NA")) %>%
   rename(
    NumberOfStudents = "NUMBER OF STUDENTS / SEATS FILLED",
    AvgClassSize = "AVERAGE CLASS SIZE"
   )

ClassSize

## # A tibble: 3,335 x 10
##      CSD BORO  GRADE `PROGRAM TYPE` `CORE SUBJECT (MS COR… `CORE COURSE (MS COR…
##    <dbl> <chr> <chr> <chr>          <chr>                  <chr>                
##  1     1 M     0K    GEN ED         -                      -                    
##  2     1 M     0K    CTT            -                      -                    
##  3     1 M     1     GEN ED         -                      -                    
##  4     1 M     1     CTT            -                      -                    
##  5     1 M     1     G&T            -                      -                    
##  6     1 M     2     GEN ED         -                      -                    
##  7     1 M     2     CTT            -                      -                    
##  8     1 M     3     GEN ED         -                      -                    
##  9     1 M     3     CTT            -                      -                    
## 10     1 M     4     GEN ED         -                      -                    
## # … with 3,325 more rows, and 4 more variables:
## #   SERVICE CATEGORY(K-9* ONLY) <chr>, NumberOfStudents <dbl>,
## #   NUMBER OF SECTIONS <dbl>, AvgClassSize <dbl>
…
