…
## # A tibble: 5 x 2
##   occupation_desc                n
##   <chr>                      <int>
## 1 LABOUR/OTHER ELEM WRK WOOD  1150
## 2 FISH CANNING CURING/PACK    1055
## 3 LABOUR/OTHER ELEM WORK-NEC   941
## 4 OTHER OCCUPATIONS - NEC      518
## 5 INDUSTR/FARM/CONSTR MACHIN   443

<img src="{{< blogdown/postref >}}index_files/figure-html/unnamed-chunk-5-1.png" width="672" /><img src="{{< blogdown/postref >}}index_files/figure-html/unnamed-chunk-5-2.png" width="672" />

<img src="{{< blogdown/postref >}}index_files/figure-html/unnamed-chunk-6-1.png" width="672" />

## # A tibble: 6,628 x 4
## # Groups:   nature_of_injury_desc, event_exposure_desc, source_of_injury_desc
## #   [6,628]
##    nature_of_injury_de… event_exposure_desc          source_of_injury_desc     n
##    <chr>                <chr>                        <chr>                 <int>
##  1 Not coded            Not coded                    Not coded             10197
##  2 Sprains, strains, t… Bending, climbing, crawling… Bodily motion or pos…   651
##  3 Deafness, hearing l… Exposure to noise over time  Noise                   345
##  4 Sprains, strains, t… Bodily reaction, n.e.c.      Bodily motion or pos…   223
##  5 Sprains, strains, t… Repetitive motion, n.e.c.    Bodily motion or pos…   165
##  6 Cuts, lacerations    Struck by slipping handheld… Knives                  158
##  7 Sprains, strains, t… Slip,trip,stepped on or in,… Bodily motion or pos…   148
##  8 Carpal tunnel syndr… Repetitive motion, n.e.c.    Bodily motion or pos…   129
##  9 Sprains, strains, t… Slipping on something - wit… Bodily motion or pos…   129
## 10 Sprains, strains, t… Overexertion in lifting      Boxes, crates, carto…   122
## # … with 6,618 more rows
…
