A03 - NicoleOdo - Fundamentals of Analytics
…
1. What are the three most common first names of customers?

lego_sales %>%
  count(first_name, sort = TRUE)

## # A tibble: 211 x 2
##    first_name     n
##    <chr>      <int>
##  1 Jackson       13
##  2 Jacob         11
##  3 Joseph        11
##  4 Michael       10
##  5 Audrey         8
##  6 Connor         8
##  7 Kaitlyn        8
##  8 Lucas          8
##  9 Amanda         7
## 10 Joshua         7
## # … with 201 more rows

The three most common first names are Jackson, Jacob and Joseph.

2. What are the three most common themes of lego sets purchased?

lego_sales %>%
  count(theme, sort = TRUE)

## # A tibble: 25 x 2
##    theme            n
##    <chr>        <int>
##  1 Star Wars       75
##  2 Nexo Knights    64
##  3 Gear            55
##  4 Mixels          55
##  5 City            45
##  6 Friends         42
##  7 Ninjago         38
##  8 Duplo           35
##  9 Bionicle        34
## 10 Creator         25
## # … with 15 more rows

The three most common themes of lego sets purchased are Star Wars, Nexo Knights, and a tie for Gear and Mixels.

3. Among the most common theme of lego sets purchased, what is the most common subtheme?

lego_sales %>%
  count(theme, subtheme, sort=TRUE)

## # A tibble: 78 x 3
##    theme        subtheme     n
##    <chr>        <chr>    <int>
##  1 Nexo Knights <NA>        42
##  2 Duplo        <NA>        32
##  3 Creator      <NA>        25
##  4 Ninjago      Skybound    23
##  5 City         Fire        22
##  6 Elves        <NA>        22
##  7 Nexo Knights Ultimate    22
##  8 Mixels       Series 9    21
##  9 Mixels       Series 7    18
## 10 Mixels       Series 8    16
## # … with 68 more rows

4. Create a new variable called “age_group” and group the ages into categories

AgeGroup <- lego_sales %>%
  mutate(age_group = case_when(
    age < 19 ~ "18 and under",
    between(age, 19, 25) ~ "19 - 25",
    between(age, 26, 35) ~ "26 - 35",
    between(age, 36, 50) ~ "36 - 50",
    age > 50 ~ "51 and over"
  ))

AgeGroup

## # A tibble: 620 x 15
##    first_name last_name    age phone_number set_id number theme  subtheme   year
##    <chr>      <chr>      <dbl> <chr>         <dbl> <chr>  <chr>  <chr>     <dbl>
##  1 Kimberly   Beckstead     24 216-555-2549  24701 76062  DC Co… Mighty M…  2018
##  2 Neel       Garvin        35 819-555-3189  25626 70595  Ninja… Rise of …  2018
##  3 Neel       Garvin        35 819-555-3189  24665 21031  Archi… <NA>       2018
##  4 Chelsea    Bouchard      41 <NA>          24695 31048  Creat… <NA>       2018
##  5 Chelsea    Bouchard      41 <NA>          25626 70595  Ninja… Rise of …  2018
##  6 Chelsea    Bouchard      41 <NA>          24721 10831  Duplo  <NA>       2018
##  7 Bryanna    Welsh         19 <NA>          24797 75138  Star … Episode V  2018
##  8 Bryanna    Welsh         19 <NA>          24701 76062  DC Co… Mighty M…  2018
##  9 Caleb      Garcia-Wi…    37 907-555-9236  24730 41115  Frien… <NA>       2018
## 10 Caleb      Garcia-Wi…    37 907-555-9236  25611 21127  Minec… Minifig-…  2018
## # … with 610 more rows, and 6 more variables: name <chr>, pieces <dbl>,
## #   us_price <dbl>, image_url <chr>, quantity <dbl>, age_group <chr>
…
