Statistical Analysis Practice - NicoleOdo - Fundamentals of Analytics
…
Import Libraries

Data: Class Sizes

ClassSize <- read_csv("Class Size District Level Summary.csv", na = c("n/a", "", "NA")) %>%
   rename(
    NumberOfStudents = "NUMBER OF STUDENTS / SEATS FILLED",
    AvgClassSize = "AVERAGE CLASS SIZE",
    NumberSections = "NUMBER OF SECTIONS"
   )

ClassSize

## # A tibble: 3,335 x 10
##      CSD BORO  GRADE `PROGRAM TYPE` `CORE SUBJECT (MS COR… `CORE COURSE (MS COR…
##    <dbl> <chr> <chr> <chr>          <chr>                  <chr>                
##  1     1 M     0K    GEN ED         -                      -                    
##  2     1 M     0K    CTT            -                      -                    
##  3     1 M     1     GEN ED         -                      -                    
##  4     1 M     1     CTT            -                      -                    
##  5     1 M     1     G&T            -                      -                    
##  6     1 M     2     GEN ED         -                      -                    
##  7     1 M     2     CTT            -                      -                    
##  8     1 M     3     GEN ED         -                      -                    
##  9     1 M     3     CTT            -                      -                    
## 10     1 M     4     GEN ED         -                      -                    
## # … with 3,325 more rows, and 4 more variables:
## #   SERVICE CATEGORY(K-9* ONLY) <chr>, NumberOfStudents <dbl>,
## #   NumberSections <dbl>, AvgClassSize <dbl>
…
- The slope has the same sign as the correlation coefficient: \(b_1 = r \frac{s_y}{s_x}\)

- The sum of the residuals is zero: \(\sum_{i = 1}^n e_i = 0\)

The residuals and \(x\) values are uncorrelated

Categorical predictor with 2 levels

Relationship between average class size and district

.pull-left-narrow[
.small[

## # A tibble: 3,335 x 2
##      CSD AvgClassSize
##    <dbl>        <dbl>
##  1     1         20.3
##  2     1         20.8
##  3     1         20.1
##  4     1         18.9
##  5     1         25  
##  6     1         20  
##  7     1         18.8
##  8     1         18.8
##  9     1         16.4
## 10     1         18.9
## 11     1         18.9
## 12     1         27  
## 13     1         24.3
## 14     1         22.5
## 15     1         25  
## 16     1         19.6
## 17     1         23  
## 18     1         19.2
## 19     1         20.8
## 20     1         21  
## # … with 3,315 more rows

linear_reg() %>%
  set_engine("lm") %>%
  fit(AvgClassSize ~ factor(CSD), data = ClassSize) %>%
  tidy()

## # A tibble: 32 x 5
##    term          estimate std.error statistic   p.value
##    <chr>            <dbl>     <dbl>     <dbl>     <dbl>
##  1 (Intercept)     20.3       0.689    29.5   1.59e-169
##  2 factor(CSD)2     1.53      0.925     1.65  9.87e-  2
##  3 factor(CSD)3     2.03      0.945     2.14  3.20e-  2
##  4 factor(CSD)4     0.589     0.961     0.613 5.40e-  1
##  5 factor(CSD)5     0.880     0.939     0.937 3.49e-  1
##  6 factor(CSD)6     2.62      0.959     2.74  6.26e-  3
##  7 factor(CSD)7     0.113     0.945     0.119 9.05e-  1
##  8 factor(CSD)8     1.55      0.925     1.67  9.45e-  2
##  9 factor(CSD)9     1.29      0.935     1.38  1.67e-  1
## 10 factor(CSD)10    1.96      0.917     2.14  3.26e-  2
## # … with 22 more rows
…
0

0

0

0

1

]
.pull-right-narrow[
.small[

## # A tibble: 3,335 x 3
##      CSD AvgClassSize NumberOfStudents
##    <dbl>        <dbl>            <dbl>
##  1     1         20.3              792
##  2     1         20.8              187
##  3     1         20.1              662
##  4     1         18.9              208
##  5     1         25                 25
##  6     1         20                560
##  7     1         18.8              225
##  8     1         18.8              678
##  9     1         16.4              131
## 10     1         18.9              548
## 11     1         18.9              227
## 12     1         27                 27
## 13     1         24.3              511
## 14     1         22.5              270
## 15     1         25                 25
## 16     1         19.6              607
## 17     1         23                207
## 18     1         19.2              577
## 19     1         20.8              166
## 20     1         21                652
## # … with 3,315 more rows
…
