…
<img src="{{< blogdown/postref >}}index_files/figure-html/unnamed-chunk-1-1.png" width="672" />

One Table Verb

Used filter and arrange to extract the lowest performing region in terms of happiness scores, and arranged the data by ascending order based on level of social support

SocialSupport <- world_happiness_2021 %>%
  filter(`Regional indicator` == 'Sub-Saharan Africa') %>%
  arrange(desc(`Social support`))

SocialSupport

## # A tibble: 36 x 20
##    `Country name` `Regional indica… `Ladder score` `Standard error… upperwhisker
##    <chr>          <chr>                      <dbl>            <dbl>        <dbl>
##  1 Mauritius      Sub-Saharan Afri…           6.05            0.059         6.16
##  2 South Africa   Sub-Saharan Afri…           4.96            0.06          5.07
##  3 Namibia        Sub-Saharan Afri…           4.57            0.064         4.7 
##  4 Mauritania     Sub-Saharan Afri…           4.23            0.07          4.36
##  5 Lesotho        Sub-Saharan Afri…           3.51            0.12          3.75
##  6 Botswana       Sub-Saharan Afri…           3.47            0.074         3.61
##  7 Uganda         Sub-Saharan Afri…           4.64            0.073         4.78
##  8 Gabon          Sub-Saharan Afri…           4.85            0.075         5.00
##  9 Swaziland      Sub-Saharan Afri…           4.31            0.071         4.45
## 10 Ethiopia       Sub-Saharan Afri…           4.28            0.051         4.37
## # … with 26 more rows, and 15 more variables: lowerwhisker <dbl>,
## #   Logged GDP per capita <dbl>, Social support <dbl>,
## #   Healthy life expectancy <dbl>, Freedom to make life choices <dbl>,
## #   Generosity <dbl>, Perceptions of corruption <dbl>,
## #   Ladder score in Dystopia <dbl>, Explained by: Log GDP per capita <dbl>,
## #   Explained by: Social support <dbl>,
## #   Explained by: Healthy life expectancy <dbl>,
## #   Explained by: Freedom to make life choices <dbl>,
## #   Explained by: Generosity <dbl>,
…
