…
### Data Formatting
There are a few data frame manipulation functions that are helpful when it comes to structuring data in a way that makes sense for the analysis. The function pivot_longer() was utilized earlier to re-structure how the upper and lower limits of the happiness score were presented in the data set.

A second attempt at re-structuring the data is shown below, using:

* pivot_wider()
* replace_na()

This allowed for the ladder scores to be presented underneath a column labeled by the regional indicator for that country. It's not recommended that the data be formatted this way, but the capabilities of pivoting the data are nonetheless very valuable.

Since this data structure resulted in a significant portion of "NA" fields, this was replaced with the comment "Not in Region" to make it easier to review.


```
## # A tibble: 149 x 28
##    `Country name` `Standard error of… upperwhisker lowerwhisker `Logged GDP per…
##    <chr>          <chr>               <chr>        <chr>        <chr>           
##  1 Finland        0.032               7.904        7.78         10.775          
##  2 Denmark        0.035               7.687        7.552        10.933          
##  3 Switzerland    0.036               7.643        7.5          11.117          
##  4 Iceland        0.059               7.67         7.438        10.878          
##  5 Netherlands    0.027               7.518        7.41         10.932          
##  6 Norway         0.035               7.462        7.323        11.053          
##  7 Sweden         0.036               7.433        7.293        10.867          
##  8 Luxembourg     0.037               7.396        7.252        11.647          
##  9 New Zealand    0.04                7.355        7.198        10.643          
## 10 Austria        0.036               7.337        7.198        10.906          
## # … with 139 more rows, and 23 more variables: Social support <chr>,
## #   Healthy life expectancy <chr>, Freedom to make life choices <chr>,
## #   Generosity <chr>, Perceptions of corruption <chr>,
## #   Ladder score in Dystopia <chr>, Explained by: Log GDP per capita <chr>,
## #   Explained by: Social support <chr>,
## #   Explained by: Healthy life expectancy <chr>,
## #   Explained by: Freedom to make life choices <chr>,
## #   Explained by: Generosity <chr>,
## #   Explained by: Perceptions of corruption <chr>, Dystopia + residual <chr>,
## #   Western Europe <chr>, North America and ANZ <chr>,
## #   Middle East and North Africa <chr>, Latin America and Caribbean <chr>,
## #   Central and Eastern Europe <chr>, East Asia <chr>, Southeast Asia <chr>,
## #   Commonwealth of Independent States <chr>, Sub-Saharan Africa <chr>,
## #   South Asia <chr>
```
It was noted that there were countries that contained no scores in some of the evaluation areas. These were remvoed using the function:

* drop_na()


```
## # A tibble: 1,708 x 11
##    `Country name`  year `Life Ladder` `Log GDP per capita` `Social support`
##    <chr>          <dbl>         <dbl>                <dbl>            <dbl>
##  1 Afghanistan     2008          3.72                 7.37            0.451
##  2 Afghanistan     2009          4.40                 7.54            0.552
##  3 Afghanistan     2010          4.76                 7.65            0.539
##  4 Afghanistan     2011          3.83                 7.62            0.521
##  5 Afghanistan     2012          3.78                 7.70            0.521
##  6 Afghanistan     2013          3.57                 7.72            0.484
##  7 Afghanistan     2014          3.13                 7.72            0.526
##  8 Afghanistan     2015          3.98                 7.70            0.529
##  9 Afghanistan     2016          4.22                 7.70            0.559
## 10 Afghanistan     2017          2.66                 7.70            0.491
## # … with 1,698 more rows, and 6 more variables:
## #   Healthy life expectancy at birth <dbl>, Freedom to make life choices <dbl>,
## #   Generosity <dbl>, Perceptions of corruption <dbl>, Positive affect <dbl>,
## #   Negative affect <dbl>
```
…
