…
The data collected for No Lost Time incidents includes only:

Sector and description

NAICS code and description

Claim type

Accident date and year

Part of body injured

This will limit the analysis that can be executed on No Lost Time data.

## # A tibble: 4,007 x 18
##    Sector Sector_desc   NAICS NAICS_desc          Claim_Type accident_date AccYr
##     <dbl> <chr>         <dbl> <chr>               <chr>      <chr>         <dbl>
##  1     23 Construction 236110 Residential Buildi… LT         03-Jan-11      2011
##  2     23 Construction 236110 Residential Buildi… LT         10-Jan-11      2011
##  3     23 Construction 236110 Residential Buildi… LT         18-Jan-11      2011
##  4     23 Construction 236110 Residential Buildi… LT         31-Jan-11      2011
##  5     23 Construction 236110 Residential Buildi… LT         16-Feb-11      2011
##  6     23 Construction 236110 Residential Buildi… LT         21-Feb-11      2011
##  7     23 Construction 236110 Residential Buildi… LT         24-Feb-11      2011
##  8     23 Construction 236110 Residential Buildi… LT         25-Feb-11      2011
##  9     23 Construction 236110 Residential Buildi… LT         10-Mar-11      2011
## 10     23 Construction 236110 Residential Buildi… LT         24-Mar-11      2011
## # … with 3,997 more rows, and 11 more variables: occupation_code <dbl>,
## #   occupation_desc <chr>, part_of_body_code <dbl>, part_of_body_desc <chr>,
## #   nature_of_injury_code <dbl>, nature_of_injury_desc <chr>,
## #   event_exposure_code <dbl>, event_exposure_desc <chr>,
## #   source_of_injury_code <dbl>, source_of_injury_desc <chr>,
## #   fatality_flag <chr>
…
As we can see here, the frequency of incidents each year appears to be trending down, specifically over the last three years. This is positive news for the industry, as it means preventative measures when it comes to safety are working. However, there are still over 250 incidents that occured in 2020, so the industry as a whole still requires improvement to reach zero incidents.

Lost Time vs. No Lost Time Incident Trends

The summary above includes both Lost Time (LT) and No Lost Time (NLT) incidents combined. This leads to further questions of whether there are data trends based on claim type. Are lost time incidents (the more severe type of incident) also trending downwards?

#ggplot(LTvsNLT, aes(x = AccYr, y = n, fill=Claim_Type)) + geom_col()

This plot highlights the fact that lost time incidents are typically accounting for more of the total claims than no lost time incidents each year.

Most Dangerous Occupations in Construction

The organizations that make up the Construction Industry in New Brunswick are vast, therefore, the industry accounts for many different occupations within it. By nature, some occupations are more dangerous than others, and we would like to explore this further.

## # A tibble: 135 x 3
## # Groups:   occupation_desc [135]
##    occupation_desc            Sector_desc      n
##    <chr>                      <chr>        <int>
##  1 CARPENTER/RELATED          Construction   598
##  2 LABOUR/OTHER ELEM WRK OTHE Construction   527
##  3 LABOUR/OTHER ELEM WORK-NEC Construction   391
##  4 CONS ELECTRICIAN/REPAIRMAN Construction   215
##  5 PIPEFITTER/PLUMBER/RELATED Construction   211
##  6 TRUCK DRIVER               Construction   166
##  7 OCCUPATION NOT STATED      Construction   130
##  8 ROOFER/WATERPROOFER/RELA   Construction   129
##  9 PLASTERER/RELATED          Construction   119
## 10 OTHER OCCUPATIONS - NEC    Construction   110
## # … with 125 more rows
…
